<?xml version="1.0" encoding="UTF-8" standalone="no"?>
<!-- Created with Inkscape (http://www.inkscape.org/) -->

<svg
   xmlns:dc="http://purl.org/dc/elements/1.1/"
   xmlns:cc="http://creativecommons.org/ns#"
   xmlns:rdf="http://www.w3.org/1999/02/22-rdf-syntax-ns#"
   xmlns:svg="http://www.w3.org/2000/svg"
   xmlns="http://www.w3.org/2000/svg"
   xmlns:sodipodi="http://sodipodi.sourceforge.net/DTD/sodipodi-0.dtd"
   xmlns:inkscape="http://www.inkscape.org/namespaces/inkscape"
   width="28.222221mm"
   height="28.222221mm"
   viewBox="0 0 99.999997 99.999997"
   id="svg2"
   version="1.1"
   inkscape:version="0.91 r13725"
   sodipodi:docname="menu.svg"
   inkscape:export-filename="/var/www/html/aplicaciones/psicogerencia/imagen/menu-blanco.png"
   inkscape:export-xdpi="90"
   inkscape:export-ydpi="90">
  <defs
     id="defs4" />
  <sodipodi:namedview
     id="base"
     pagecolor="#ffffff"
     bordercolor="#666666"
     borderopacity="1.0"
     inkscape:pageopacity="0.0"
     inkscape:pageshadow="2"
     inkscape:zoom="1.6269531"
     inkscape:cx="24.082817"
     inkscape:cy="19.32403"
     inkscape:document-units="px"
     inkscape:current-layer="layer1"
     showgrid="false"
     fit-margin-top="0"
     fit-margin-left="0"
     fit-margin-right="0"
     fit-margin-bottom="0"
     inkscape:window-width="1307"
     inkscape:window-height="744"
     inkscape:window-x="59"
     inkscape:window-y="24"
     inkscape:window-maximized="1" />
  <metadata
     id="metadata7">
    <rdf:RDF>
      <cc:Work
         rdf:about="">
        <dc:format>image/svg+xml</dc:format>
        <dc:type
           rdf:resource="http://purl.org/dc/dcmitype/StillImage" />
        <dc:title></dc:title>
      </cc:Work>
    </rdf:RDF>
  </metadata>
  <g
     inkscape:label="Capa 1"
     inkscape:groupmode="layer"
     id="layer1"
     transform="translate(-383.539,-578.65747)">
    <g
       id="g3459">
      <g
         style="fill:#a00058;fill-opacity:1"
         transform="matrix(0.1265783,0,0,0.1265783,389.97054,554.11307)"
         id="g3362">
        <g
           style="fill:#a00058;fill-opacity:1"
           id="g3340"
           transform="translate(1.2292917,3.7366011e-5)">
          <path
             style="color:#000000;clip-rule:nonzero;display:inline;overflow:visible;visibility:visible;opacity:1;isolation:auto;mix-blend-mode:normal;color-interpolation:sRGB;color-interpolation-filters:linearRGB;solid-color:#000000;solid-opacity:1;fill:#ffffff;fill-opacity:1;fill-rule:evenodd;stroke:none;stroke-width:1px;stroke-linecap:butt;stroke-linejoin:miter;stroke-miterlimit:4;stroke-dasharray:none;stroke-dashoffset:0;stroke-opacity:1;color-rendering:auto;image-rendering:auto;shape-rendering:auto;text-rendering:auto;enable-background:accumulate"
             d="M 12.5 21.058594 L 12.5 35.685547 L 27.126953 35.685547 L 27.126953 21.058594 L 12.5 21.058594 z M 35.21875 21.058594 L 35.21875 35.685547 L 87.5 35.685547 L 87.5 21.058594 L 35.21875 21.058594 z M 12.5 42.6875 L 12.5 57.3125 L 27.126953 57.3125 L 27.126953 42.6875 L 12.5 42.6875 z M 35.21875 42.6875 L 35.21875 57.3125 L 87.5 57.3125 L 87.5 42.6875 L 35.21875 42.6875 z M 12.5 64.314453 L 12.5 78.941406 L 27.126953 78.941406 L 27.126953 64.314453 L 12.5 64.314453 z M 35.21875 64.314453 L 35.21875 78.941406 L 87.5 78.941406 L 87.5 64.314453 L 35.21875 64.314453 z "
             transform="matrix(7.9002483,0,0,7.9002483,-52.040055,193.90682)"
             id="rect3336" />
        </g>
        <g
           style="fill:#a00058;fill-opacity:1"
           id="g3344"
           transform="translate(1.2292917,170.87156)" />
        <g
           style="fill:#a00058;fill-opacity:1"
           transform="translate(1.2292917,341.74309)"
           id="g3356" />
      </g>
      <rect
         y="578.65747"
         x="383.539"
         height="100"
         width="100"
         id="rect3373"
         style="color:#000000;clip-rule:nonzero;display:inline;overflow:visible;visibility:visible;opacity:1;isolation:auto;mix-blend-mode:normal;color-interpolation:sRGB;color-interpolation-filters:linearRGB;solid-color:#000000;solid-opacity:1;fill:none;fill-opacity:1;fill-rule:evenodd;stroke:none;stroke-width:1px;stroke-linecap:butt;stroke-linejoin:miter;stroke-miterlimit:4;stroke-dasharray:none;stroke-dashoffset:0;stroke-opacity:1;color-rendering:auto;image-rendering:auto;shape-rendering:auto;text-rendering:auto;enable-background:accumulate" />
    </g>
  </g>
</svg>
